\relax 
\bibstyle{biblatex}
\bibdata{thesisMDT-blx,bib}
\citation{biblatex-control}
\providecommand\HyperFirstAtBeginDocument{\AtBeginDocument}
\HyperFirstAtBeginDocument{\ifx\hyper@anchor\@undefined
\global\let\oldcontentsline\contentsline
\gdef\contentsline#1#2#3#4{\oldcontentsline{#1}{#2}{#3}}
\global\let\oldnewlabel\newlabel
\gdef\newlabel#1#2{\newlabelxx{#1}#2}
\gdef\newlabelxx#1#2#3#4#5#6{\oldnewlabel{#1}{{#2}{#3}}}
\AtEndDocument{\ifx\hyper@anchor\@undefined
\let\contentsline\oldcontentsline
\let\newlabel\oldnewlabel
\fi}
\fi}
\global\let\hyper@last\relax 
\gdef\HyperFirstAtBeginDocument#1{#1}
\providecommand\HyField@AuxAddToFields[1]{}
\providecommand\HyField@AuxAddToCoFields[2]{}
\providecommand\@newglossary[4]{}
\@newglossary{main}{glg}{gls}{glo}
\@newglossary{acronym}{alg}{acr}{acn}
\providecommand\@glsorder[1]{}
\providecommand\@istfilename[1]{}
\@istfilename{thesisMDT.ist}
\@glsorder{word}
\@writefile{toc}{\boolfalse {citerequest}\boolfalse {citetracker}\boolfalse {pagetracker}\boolfalse {backtracker}\relax }
\@writefile{lof}{\boolfalse {citerequest}\boolfalse {citetracker}\boolfalse {pagetracker}\boolfalse {backtracker}\relax }
\@writefile{lot}{\boolfalse {citerequest}\boolfalse {citetracker}\boolfalse {pagetracker}\boolfalse {backtracker}\relax }
\select@language{english}
\@writefile{toc}{\defcounter {refsection}{0}\relax }\@writefile{toc}{\select@language{english}}
\@writefile{lof}{\defcounter {refsection}{0}\relax }\@writefile{lof}{\select@language{english}}
\@writefile{lot}{\defcounter {refsection}{0}\relax }\@writefile{lot}{\select@language{english}}
\@writefile{loa}{\defcounter {refsection}{0}\relax }\@writefile{loa}{\select@language{english}}
\@writefile{lol}{\defcounter {refsection}{0}\relax }\@writefile{lol}{\select@language{english}}
\@writefile{toc}{\contentsline {chapter}{Declaration of authorship}{i}{chapter*.1}}
\@writefile{lof}{\addvspace {10\p@ }}
\@writefile{lot}{\addvspace {10\p@ }}
\@writefile{toc}{\contentsline {chapter}{Abstract}{iii}{chapter*.2}}
\@writefile{lof}{\addvspace {10\p@ }}
\@writefile{lot}{\addvspace {10\p@ }}
\@writefile{toc}{\contentsline {chapter}{List of Figures}{vii}{chapter*.4}}
\@writefile{toc}{\contentsline {chapter}{List of Tables}{ix}{chapter*.5}}
\@writefile{toc}{\contentsline {chapter}{Glossary}{xiii}{section*.7}}
\@writefile{toc}{\contentsline {chapter}{Acronyms}{xv}{section*.9}}
\@writefile{toc}{\contentsline {chapter}{\numberline {1}Conclusion and Outlook}{1}{chapter.11}}
\@writefile{lof}{\addvspace {10\p@ }}
\@writefile{lot}{\addvspace {10\p@ }}
\@writefile{toc}{\contentsline {section}{\numberline {1.1}Conclusion}{1}{section.12}}
\@writefile{toc}{\contentsline {chapter}{\numberline {2}Evaluation}{3}{chapter.13}}
\@writefile{lof}{\addvspace {10\p@ }}
\@writefile{lot}{\addvspace {10\p@ }}
\@writefile{toc}{\contentsline {chapter}{Appendices}{5}{appendix*.14}}
\@writefile{lof}{\addvspace {10\p@ }}
\@writefile{lot}{\addvspace {10\p@ }}
\@writefile{toc}{\contentsline {section}{\numberline {.1}Figures}{5}{section.15}}
\@writefile{lof}{\contentsline {figure}{\numberline {1}{\ignorespaces bunny\relax }}{5}{figure.caption.16}}
\providecommand*\caption@xref[2]{\@setref\relax\@undefined{#1}}
\newlabel{fig:bunny}{{1}{5}{bunny\relax }{figure.caption.16}{}}
\@writefile{toc}{\contentsline {section}{\numberline {.2}Listings}{5}{section.17}}
\@writefile{loa}{\contentsline {algorithm}{\numberline {.1}{\ignorespaces Example YAML file\relax }}{5}{algorithm.32}}
\newlabel{lst:example-yaml}{{.1}{5}{Example YAML file\relax }{algorithm.32}{}}
