\boolfalse {citerequest}\boolfalse {citetracker}\boolfalse {pagetracker}\boolfalse {backtracker}\relax 
\defcounter {refsection}{0}\relax 
\select@language {english}
\contentsline {chapter}{Declaration of authorship}{i}{chapter*.1}
\contentsline {chapter}{Abstract}{iii}{chapter*.2}
\contentsline {chapter}{List of Figures}{vii}{chapter*.4}
\contentsline {chapter}{List of Tables}{ix}{chapter*.5}
\contentsline {chapter}{Glossary}{xiii}{section*.7}
\contentsline {chapter}{Acronyms}{xv}{section*.9}
\contentsline {chapter}{\numberline {1}Conclusion and Outlook}{1}{chapter.11}
\contentsline {section}{\numberline {1.1}Conclusion}{1}{section.12}
\contentsline {chapter}{\numberline {2}Evaluation}{3}{chapter.13}
\contentsline {chapter}{Appendices}{5}{appendix*.14}
\contentsline {section}{\numberline {.1}Figures}{5}{section.15}
\contentsline {section}{\numberline {.2}Listings}{5}{section.17}
